ply
format ascii 1.0
comment Created by Blender 2.78 (sub 0) - www.blender.org, source file: 'enclosure.blend'
element vertex 893
property float x
property float y
property float z
property float nx
property float ny
property float nz
property uchar red
property uchar green
property uchar blue
element face 552
property list uchar uint vertex_indices
end_header
-0.215000 0.275000 0.475000 -0.000000 1.000000 0.000000 255 255 255
-0.215000 0.275000 0.025000 -0.000000 1.000000 0.000000 255 255 255
-0.220000 0.275000 0.475000 -0.000000 1.000000 0.000000 255 255 255
-0.220000 0.275000 0.025000 0.000000 1.000000 -0.000000 255 255 255
-0.215000 -0.275000 0.475000 -0.000000 0.000000 1.000000 255 255 255
-0.215000 0.275000 0.475000 -0.000000 0.000000 1.000000 255 255 255
-0.220000 -0.275000 0.475000 -0.000000 0.000000 1.000000 255 255 255
-0.220000 0.275000 0.475000 -0.000000 0.000000 1.000000 255 255 255
-0.215000 -0.275000 0.025000 0.000000 -1.000000 -0.000000 255 255 255
-0.215000 -0.275000 0.475000 0.000000 -1.000000 -0.000000 255 255 255
-0.220000 -0.275000 0.025000 0.000000 -1.000000 -0.000000 255 255 255
-0.220000 -0.275000 0.475000 0.000000 -1.000000 -0.000000 255 255 255
-0.215000 0.275000 0.025000 0.000000 0.000000 -1.000000 255 255 255
-0.215000 -0.275000 0.025000 0.000000 0.000000 -1.000000 255 255 255
-0.220000 0.275000 0.025000 0.000000 0.000000 -1.000000 255 255 255
-0.220000 -0.275000 0.025000 0.000000 0.000000 -1.000000 255 255 255
-0.215000 -0.275000 0.475000 1.000000 0.000000 -0.000000 255 255 255
-0.215000 -0.275000 0.025000 1.000000 0.000000 -0.000000 255 255 255
-0.215000 0.275000 0.475000 1.000000 0.000000 -0.000000 255 255 255
-0.215000 0.275000 0.025000 1.000000 0.000000 -0.000000 255 255 255
-0.220000 -0.275000 0.025000 -1.000000 -0.000000 0.000000 255 255 255
-0.220000 -0.275000 0.475000 -1.000000 -0.000000 0.000000 255 255 255
-0.220000 0.275000 0.025000 -1.000000 -0.000000 0.000000 255 255 255
-0.220000 0.275000 0.475000 -1.000000 -0.000000 0.000000 255 255 255
0.195000 -0.275000 0.030000 0.000000 -0.000000 1.000000 255 255 255
0.220000 -0.275000 0.030000 0.000000 -0.000000 1.000000 255 255 255
-0.039500 -0.045000 0.030000 0.000000 -0.000000 1.000000 255 255 255
-0.152250 0.049763 0.030000 0.000000 0.000000 1.000000 255 255 255
-0.151111 0.048889 0.030000 0.000000 0.000000 1.000000 255 255 255
-0.045000 0.050500 0.030000 0.000000 0.000000 1.000000 255 255 255
-0.046424 0.039687 0.030000 0.000000 0.000002 1.000000 255 255 255
-0.149500 0.045000 0.030000 0.000000 0.000002 1.000000 255 255 255
-0.045000 0.039500 0.030000 0.000000 0.000002 1.000000 255 255 255
-0.045000 0.039500 0.030000 0.000000 -0.000000 1.000000 255 255 255
-0.149500 0.045000 0.030000 0.000000 -0.000000 1.000000 255 255 255
-0.149687 0.043576 0.030000 0.000000 -0.000000 1.000000 255 255 255
-0.046424 0.039687 0.030000 0.000000 0.000000 1.000000 255 255 255
-0.047750 0.040237 0.030000 0.000000 0.000000 1.000000 255 255 255
-0.048889 0.041111 0.030000 0.000000 0.000000 1.000000 255 255 255
-0.049763 0.042250 0.030000 0.000000 0.000000 1.000000 255 255 255
-0.195000 0.275000 0.030000 0.000001 0.000000 1.000000 255 255 255
-0.160313 0.043576 0.030000 0.000001 0.000000 1.000000 255 255 255
-0.160500 0.045000 0.030000 0.000001 0.000000 1.000000 255 255 255
-0.195000 0.275000 0.030000 0.000000 0.000000 1.000000 255 255 255
-0.160500 0.045000 0.030000 0.000000 0.000000 1.000000 255 255 255
-0.195000 0.300000 0.030000 0.000000 0.000000 1.000000 255 255 255
-0.160313 0.046424 0.030000 0.000000 -0.000000 1.000000 255 255 255
-0.159763 0.047750 0.030000 0.000000 -0.000000 1.000000 255 255 255
0.195000 -0.300000 0.030000 0.000000 0.000000 1.000000 255 255 255
-0.039687 -0.046424 0.030000 0.000000 -0.000000 1.000000 255 255 255
0.195000 -0.300000 0.030000 0.000001 0.000001 1.000000 255 255 255
-0.039687 -0.046424 0.030000 0.000001 0.000001 1.000000 255 255 255
-0.040237 -0.047750 0.030000 0.000001 0.000001 1.000000 255 255 255
-0.043576 0.050313 0.030000 0.000000 0.000000 1.000000 255 255 255
0.195000 0.275000 0.030000 0.000000 0.000000 1.000000 255 255 255
-0.042250 0.049763 0.030000 0.000000 0.000000 1.000000 255 255 255
-0.041111 0.048889 0.030000 0.000000 0.000000 1.000000 255 255 255
0.220000 0.275000 0.030000 0.000000 0.000000 1.000000 255 255 255
-0.040237 0.047750 0.030000 0.000000 0.000000 1.000000 255 255 255
-0.050313 0.043576 0.030000 0.000000 0.000000 1.000000 255 255 255
-0.050500 0.045000 0.030000 0.000000 0.000000 1.000000 255 255 255
-0.149687 0.046424 0.030000 0.000000 0.000000 1.000000 255 255 255
-0.050313 0.046424 0.030000 0.000000 -0.000000 1.000000 255 255 255
-0.049763 0.047750 0.030000 0.000000 -0.000000 1.000000 255 255 255
-0.048889 0.048889 0.030000 0.000000 -0.000000 1.000000 255 255 255
-0.047750 0.049763 0.030000 0.000000 -0.000000 1.000000 255 255 255
-0.150237 0.047750 0.030000 0.000000 0.000000 1.000000 255 255 255
-0.045000 0.050500 0.030000 0.000000 -0.000002 1.000000 255 255 255
-0.149687 0.046424 0.030000 0.000000 -0.000002 1.000000 255 255 255
-0.046424 0.050313 0.030000 0.000000 -0.000002 1.000000 255 255 255
-0.046424 0.050313 0.030000 0.000000 -0.000000 1.000000 255 255 255
-0.158889 0.048889 0.030000 0.000000 -0.000000 1.000000 255 255 255
-0.157750 0.049763 0.030000 0.000000 -0.000000 1.000000 255 255 255
0.195000 0.300000 0.030000 0.000000 0.000000 1.000000 255 255 255
-0.220000 0.275000 0.030000 0.000000 -0.000000 1.000000 255 255 255
-0.160313 0.043576 0.030000 0.000000 -0.000000 1.000000 255 255 255
-0.220000 -0.275000 0.030000 0.000000 0.000000 1.000000 255 255 255
-0.159763 0.042250 0.030000 0.000000 0.000000 1.000000 255 255 255
-0.157750 0.049763 0.030000 -0.000000 0.000001 1.000000 255 255 255
-0.156424 0.050313 0.030000 -0.000000 0.000001 1.000000 255 255 255
0.195000 0.275000 0.030000 -0.000000 0.000001 1.000000 255 255 255
-0.156424 0.050313 0.030000 -0.000000 0.000000 1.000000 255 255 255
-0.155000 0.050500 0.030000 -0.000000 0.000000 1.000000 255 255 255
-0.045000 0.050500 0.030000 0.000000 -0.000009 1.000000 255 255 255
-0.155000 0.050500 0.030000 0.000000 -0.000009 1.000000 255 255 255
-0.153576 0.050313 0.030000 0.000000 -0.000009 1.000000 255 255 255
-0.153576 0.050313 0.030000 0.000000 0.000000 1.000000 255 255 255
-0.041111 -0.048889 0.030000 -0.000001 0.000001 1.000000 255 255 255
-0.195000 -0.275000 0.030000 -0.000001 0.000001 1.000000 255 255 255
-0.040237 -0.047750 0.030000 -0.000001 0.000001 1.000000 255 255 255
-0.040237 -0.047750 0.030000 0.000000 -0.000000 1.000000 255 255 255
-0.195000 -0.275000 0.030000 0.000000 -0.000000 1.000000 255 255 255
-0.195000 -0.300000 0.030000 0.000000 -0.000000 1.000000 255 255 255
-0.041111 -0.048889 0.030000 -0.000000 0.000000 1.000000 255 255 255
-0.042250 -0.049763 0.030000 -0.000000 0.000000 1.000000 255 255 255
-0.043576 -0.050313 0.030000 -0.000000 0.000000 1.000000 255 255 255
-0.045000 -0.050500 0.030000 -0.000000 0.000000 1.000000 255 255 255
-0.149687 -0.046424 0.030000 0.000000 -0.000000 1.000000 255 255 255
-0.150237 -0.047750 0.030000 0.000000 -0.000000 1.000000 255 255 255
-0.151111 -0.048889 0.030000 0.000000 -0.000000 1.000000 255 255 255
-0.152250 -0.049763 0.030000 -0.000000 0.000000 1.000000 255 255 255
-0.156424 -0.050313 0.030000 0.000000 0.000000 1.000000 255 255 255
-0.155000 -0.050500 0.030000 0.000000 0.000000 1.000000 255 255 255
-0.155000 -0.050500 0.030000 0.000001 -0.000000 1.000000 255 255 255
-0.195000 -0.275000 0.030000 0.000001 -0.000000 1.000000 255 255 255
-0.153576 -0.050313 0.030000 0.000001 -0.000000 1.000000 255 255 255
-0.153576 -0.050313 0.030000 -0.000000 0.000000 1.000000 255 255 255
-0.157750 0.040237 0.030000 -0.000000 0.000000 1.000000 255 255 255
-0.158889 0.041111 0.030000 -0.000000 0.000000 1.000000 255 255 255
-0.158889 -0.041111 0.030000 -0.000000 0.000000 1.000000 255 255 255
-0.159763 -0.042250 0.030000 -0.000000 0.000000 1.000000 255 255 255
-0.157750 -0.049763 0.030000 0.000000 0.000000 1.000000 255 255 255
-0.158889 -0.048889 0.030000 0.000000 0.000000 1.000000 255 255 255
-0.159763 -0.047750 0.030000 0.000000 0.000000 1.000000 255 255 255
-0.160313 -0.046424 0.030000 0.000000 0.000000 1.000000 255 255 255
-0.160500 -0.045000 0.030000 0.000000 0.000000 1.000000 255 255 255
-0.160313 -0.043576 0.030000 0.000000 -0.000000 1.000000 255 255 255
-0.050313 -0.046424 0.030000 0.000000 0.000000 1.000000 255 255 255
-0.050500 -0.045000 0.030000 0.000000 0.000000 1.000000 255 255 255
-0.149500 -0.045000 0.030000 0.000000 0.000000 1.000000 255 255 255
-0.157750 -0.040237 0.030000 0.000000 0.000000 1.000000 255 255 255
-0.156424 -0.039687 0.030000 0.000000 -0.000000 1.000000 255 255 255
-0.156424 0.039687 0.030000 0.000000 0.000000 1.000000 255 255 255
-0.149500 -0.045000 0.030000 0.000000 0.000002 1.000000 255 255 255
-0.045000 -0.050500 0.030000 0.000000 0.000002 1.000000 255 255 255
-0.046424 -0.050313 0.030000 0.000000 0.000002 1.000000 255 255 255
-0.046424 -0.050313 0.030000 0.000000 0.000000 1.000000 255 255 255
-0.047750 -0.049763 0.030000 0.000000 0.000000 1.000000 255 255 255
-0.048889 -0.048889 0.030000 0.000000 0.000000 1.000000 255 255 255
-0.049763 -0.047750 0.030000 0.000000 0.000000 1.000000 255 255 255
-0.152250 -0.040237 0.030000 0.000000 0.000000 1.000000 255 255 255
-0.151111 -0.041111 0.030000 0.000000 0.000000 1.000000 255 255 255
-0.153576 0.039687 0.030000 0.000000 0.000000 1.000000 255 255 255
-0.150237 -0.042250 0.030000 0.000000 0.000000 1.000000 255 255 255
-0.040237 0.047750 0.030000 0.000001 -0.000001 1.000000 255 255 255
-0.039687 0.046424 0.030000 0.000001 -0.000001 1.000000 255 255 255
0.220000 0.275000 0.030000 0.000001 -0.000001 1.000000 255 255 255
-0.039687 0.046424 0.030000 0.000000 0.000000 1.000000 255 255 255
-0.039500 0.045000 0.030000 0.000000 0.000000 1.000000 255 255 255
-0.039687 0.043576 0.030000 0.000000 -0.000000 1.000000 255 255 255
0.220000 -0.275000 0.030000 0.000001 0.000001 1.000000 255 255 255
-0.039687 0.043576 0.030000 0.000001 0.000001 1.000000 255 255 255
-0.040237 0.042250 0.030000 0.000001 0.000001 1.000000 255 255 255
-0.155000 0.039500 0.030000 0.000000 -0.000000 1.000000 255 255 255
-0.155000 -0.039500 0.030000 0.000000 -0.000000 1.000000 255 255 255
-0.155000 0.039500 0.030000 0.000001 -0.000000 1.000000 255 255 255
-0.155000 -0.039500 0.030000 0.000001 -0.000000 1.000000 255 255 255
-0.153576 0.039687 0.030000 0.000001 -0.000000 1.000000 255 255 255
-0.153576 -0.039687 0.030000 0.000001 0.000000 1.000000 255 255 255
-0.153576 -0.039687 0.030000 0.000000 -0.000000 1.000000 255 255 255
-0.149687 -0.043576 0.030000 0.000000 0.000000 1.000000 255 255 255
-0.152250 0.040237 0.030000 0.000000 0.000000 1.000000 255 255 255
-0.151111 0.041111 0.030000 0.000000 -0.000000 1.000000 255 255 255
-0.041111 0.041111 0.030000 0.000000 0.000000 1.000000 255 255 255
-0.042250 0.040237 0.030000 0.000000 0.000000 1.000000 255 255 255
-0.045000 -0.039500 0.030000 0.000000 0.000000 1.000000 255 255 255
-0.043576 0.039687 0.030000 -0.000000 0.000000 1.000000 255 255 255
-0.042250 -0.040237 0.030000 0.000000 0.000000 1.000000 255 255 255
-0.041111 -0.041111 0.030000 0.000000 0.000000 1.000000 255 255 255
-0.040237 0.042250 0.030000 0.000000 0.000000 1.000000 255 255 255
-0.040237 -0.042250 0.030000 0.000000 -0.000000 1.000000 255 255 255
0.220000 -0.275000 0.030000 -0.000002 -0.000002 1.000000 255 255 255
-0.040237 -0.042250 0.030000 -0.000002 -0.000002 1.000000 255 255 255
-0.039687 -0.043576 0.030000 -0.000002 -0.000002 1.000000 255 255 255
-0.039687 -0.043576 0.030000 0.000000 0.000000 1.000000 255 255 255
-0.050313 -0.043576 0.030000 0.000000 -0.000000 1.000000 255 255 255
-0.049763 -0.042250 0.030000 0.000000 -0.000000 1.000000 255 255 255
-0.150237 0.042250 0.030000 0.000000 -0.000000 1.000000 255 255 255
-0.048889 -0.041111 0.030000 0.000000 -0.000000 1.000000 255 255 255
-0.047750 -0.040237 0.030000 0.000000 -0.000000 1.000000 255 255 255
-0.046424 -0.039687 0.030000 0.000000 -0.000000 1.000000 255 255 255
-0.043576 -0.039687 0.030000 0.000000 -0.000000 1.000000 255 255 255
0.220000 0.275000 0.025000 -0.000000 -0.000000 -1.000000 255 255 255
0.220000 -0.275000 0.025000 -0.000000 -0.000000 -1.000000 255 255 255
0.195000 -0.275000 0.025000 -0.000000 -0.000000 -1.000000 255 255 255
-0.152250 -0.049763 0.025000 -0.000000 0.000000 -1.000000 255 255 255
-0.151111 -0.048889 0.025000 -0.000000 0.000000 -1.000000 255 255 255
-0.050500 -0.045000 0.025000 -0.000000 0.000000 -1.000000 255 255 255
-0.153576 -0.050313 0.025000 -0.000000 0.000000 -1.000000 255 255 255
-0.220000 0.275000 0.025000 -0.000000 0.000000 -1.000000 255 255 255
-0.157750 0.049763 0.025000 -0.000000 0.000000 -1.000000 255 255 255
-0.158889 0.048889 0.025000 -0.000000 0.000000 -1.000000 255 255 255
-0.039500 0.045000 0.025000 -0.000000 -0.000000 -1.000000 255 255 255
-0.039687 0.046424 0.025000 -0.000000 -0.000000 -1.000000 255 255 255
0.195000 0.300000 0.025000 -0.000000 -0.000000 -1.000000 255 255 255
0.195000 0.300000 0.025000 -0.000001 0.000001 -1.000000 255 255 255
-0.039687 0.046424 0.025000 -0.000001 0.000001 -1.000000 255 255 255
-0.040237 0.047750 0.025000 -0.000001 0.000001 -1.000000 255 255 255
-0.040237 0.047750 0.025000 -0.000000 -0.000000 -1.000000 255 255 255
-0.195000 0.300000 0.025000 -0.000000 -0.000000 -1.000000 255 255 255
-0.047750 -0.040237 0.025000 -0.000000 0.000000 -1.000000 255 255 255
-0.048889 -0.041111 0.025000 -0.000000 0.000000 -1.000000 255 255 255
-0.149500 -0.045000 0.025000 -0.000000 0.000000 -1.000000 255 255 255
-0.160500 0.045000 0.025000 -0.000000 -0.000000 -1.000000 255 255 255
-0.220000 -0.275000 0.025000 -0.000000 -0.000000 -1.000000 255 255 255
-0.160313 0.043576 0.025000 -0.000000 -0.000000 -1.000000 255 255 255
-0.159763 0.042250 0.025000 -0.000000 -0.000000 -1.000000 255 255 255
-0.158889 -0.041111 0.025000 0.000000 0.000000 -1.000000 255 255 255
-0.159763 -0.042250 0.025000 0.000000 0.000000 -1.000000 255 255 255
-0.159763 0.047750 0.025000 -0.000000 0.000000 -1.000000 255 255 255
-0.160313 0.046424 0.025000 -0.000000 0.000000 -1.000000 255 255 255
-0.152250 0.040237 0.025000 -0.000000 0.000000 -1.000000 255 255 255
-0.151111 0.041111 0.025000 -0.000000 0.000000 -1.000000 255 255 255
-0.050500 0.045000 0.025000 -0.000000 0.000000 -1.000000 255 255 255
-0.150237 0.042250 0.025000 -0.000000 0.000000 -1.000000 255 255 255
-0.045000 0.050500 0.025000 -0.000000 0.000002 -1.000000 255 255 255
-0.046424 0.050313 0.025000 -0.000000 0.000002 -1.000000 255 255 255
-0.149687 0.046424 0.025000 -0.000000 0.000002 -1.000000 255 255 255
-0.149687 0.046424 0.025000 -0.000000 0.000000 -1.000000 255 255 255
-0.046424 0.050313 0.025000 -0.000000 0.000000 -1.000000 255 255 255
-0.047750 0.049763 0.025000 -0.000000 0.000000 -1.000000 255 255 255
-0.048889 0.048889 0.025000 -0.000000 0.000000 -1.000000 255 255 255
-0.049763 -0.042250 0.025000 -0.000000 0.000000 -1.000000 255 255 255
-0.050313 -0.043576 0.025000 -0.000000 0.000000 -1.000000 255 255 255
-0.149687 -0.046424 0.025000 -0.000000 0.000000 -1.000000 255 255 255
-0.150237 -0.047750 0.025000 -0.000000 0.000000 -1.000000 255 255 255
-0.149687 -0.043576 0.025000 -0.000000 -0.000000 -1.000000 255 255 255
-0.045000 -0.039500 0.025000 -0.000000 -0.000000 -1.000000 255 255 255
-0.149500 -0.045000 0.025000 -0.000000 0.000002 -1.000000 255 255 255
-0.045000 -0.039500 0.025000 -0.000000 0.000002 -1.000000 255 255 255
-0.046424 -0.039687 0.025000 -0.000000 0.000002 -1.000000 255 255 255
-0.046424 -0.039687 0.025000 -0.000000 0.000000 -1.000000 255 255 255
-0.043576 -0.039687 0.025000 0.000000 0.000000 -1.000000 255 255 255
-0.157750 0.040237 0.025000 0.000000 0.000000 -1.000000 255 255 255
-0.049763 0.047750 0.025000 -0.000000 0.000000 -1.000000 255 255 255
-0.050313 0.046424 0.025000 -0.000000 0.000000 -1.000000 255 255 255
-0.149500 0.045000 0.025000 -0.000000 -0.000000 -1.000000 255 255 255
-0.149687 0.043576 0.025000 -0.000000 0.000000 -1.000000 255 255 255
-0.043576 0.050313 0.025000 0.000000 0.000000 -1.000000 255 255 255
-0.045000 0.050500 0.025000 0.000000 0.000000 -1.000000 255 255 255
-0.195000 0.275000 0.025000 0.000000 0.000000 -1.000000 255 255 255
-0.042250 0.049763 0.025000 0.000000 0.000000 -1.000000 255 255 255
-0.150237 0.047750 0.025000 -0.000000 -0.000000 -1.000000 255 255 255
-0.151111 0.048889 0.025000 -0.000000 -0.000000 -1.000000 255 255 255
-0.152250 0.049763 0.025000 0.000000 0.000000 -1.000000 255 255 255
-0.153576 0.050313 0.025000 0.000000 0.000000 -1.000000 255 255 255
-0.195000 0.275000 0.025000 -0.000001 -0.000000 -1.000000 255 255 255
-0.153576 0.050313 0.025000 -0.000001 -0.000000 -1.000000 255 255 255
-0.155000 0.050500 0.025000 -0.000001 -0.000000 -1.000000 255 255 255
-0.155000 0.050500 0.025000 -0.000000 -0.000000 -1.000000 255 255 255
-0.156424 0.050313 0.025000 -0.000000 0.000000 -1.000000 255 255 255
-0.160313 -0.043576 0.025000 0.000000 -0.000000 -1.000000 255 255 255
-0.160500 -0.045000 0.025000 0.000000 0.000000 -1.000000 255 255 255
-0.160313 -0.046424 0.025000 -0.000000 -0.000000 -1.000000 255 255 255
-0.159763 -0.047750 0.025000 -0.000000 -0.000000 -1.000000 255 255 255
-0.158889 -0.048889 0.025000 -0.000000 -0.000000 -1.000000 255 255 255
-0.157750 -0.049763 0.025000 -0.000000 -0.000000 -1.000000 255 255 255
-0.156424 -0.050313 0.025000 -0.000000 -0.000000 -1.000000 255 255 255
-0.046424 0.039687 0.025000 0.000000 0.000000 -1.000000 255 255 255
-0.045000 0.039500 0.025000 0.000000 0.000000 -1.000000 255 255 255
-0.042250 -0.040237 0.025000 0.000000 0.000000 -1.000000 255 255 255
-0.195000 0.275000 0.025000 0.000001 0.000001 -1.000000 255 255 255
-0.040237 0.047750 0.025000 0.000001 0.000001 -1.000000 255 255 255
-0.041111 0.048889 0.025000 0.000001 0.000001 -1.000000 255 255 255
-0.041111 0.048889 0.025000 0.000000 0.000000 -1.000000 255 255 255
-0.150237 -0.042250 0.025000 -0.000000 -0.000000 -1.000000 255 255 255
-0.151111 -0.041111 0.025000 -0.000000 -0.000000 -1.000000 255 255 255
-0.152250 -0.040237 0.025000 0.000000 0.000000 -1.000000 255 255 255
-0.153576 -0.050313 0.025000 0.000001 -0.000014 -1.000000 255 255 255
-0.050500 -0.045000 0.025000 0.000001 -0.000014 -1.000000 255 255 255
-0.155000 -0.050500 0.025000 0.000001 -0.000014 -1.000000 255 255 255
-0.155000 -0.050500 0.025000 -0.000000 -0.000000 -1.000000 255 255 255
-0.050313 -0.046424 0.025000 -0.000000 -0.000000 -1.000000 255 255 255
-0.049763 -0.047750 0.025000 -0.000000 -0.000000 -1.000000 255 255 255
-0.043576 -0.050313 0.025000 0.000000 -0.000000 -1.000000 255 255 255
-0.042250 -0.049763 0.025000 0.000000 -0.000000 -1.000000 255 255 255
-0.195000 -0.275000 0.025000 0.000000 -0.000000 -1.000000 255 255 255
-0.041111 -0.048889 0.025000 0.000000 -0.000000 -1.000000 255 255 255
-0.050313 0.043576 0.025000 -0.000000 -0.000000 -1.000000 255 255 255
-0.155000 0.039500 0.025000 -0.000000 -0.000000 -1.000000 255 255 255
-0.050500 0.045000 0.025000 0.000001 -0.000014 -1.000000 255 255 255
-0.155000 0.039500 0.025000 0.000001 -0.000014 -1.000000 255 255 255
-0.153576 0.039687 0.025000 0.000001 -0.000014 -1.000000 255 255 255
-0.153576 0.039687 0.025000 -0.000000 0.000000 -1.000000 255 255 255
-0.153576 -0.039687 0.025000 0.000000 0.000000 -1.000000 255 255 255
-0.157750 0.040237 0.025000 -0.000001 -0.000000 -1.000000 255 255 255
-0.153576 -0.039687 0.025000 -0.000001 -0.000000 -1.000000 255 255 255
-0.155000 -0.039500 0.025000 -0.000001 -0.000000 -1.000000 255 255 255
-0.155000 -0.039500 0.025000 0.000000 0.000000 -1.000000 255 255 255
-0.158889 0.041111 0.025000 0.000000 0.000000 -1.000000 255 255 255
-0.156424 -0.039687 0.025000 0.000000 0.000000 -1.000000 255 255 255
-0.157750 -0.040237 0.025000 0.000000 0.000000 -1.000000 255 255 255
0.195000 -0.300000 0.025000 -0.000000 0.000000 -1.000000 255 255 255
-0.195000 -0.300000 0.025000 -0.000000 0.000000 -1.000000 255 255 255
0.220000 0.275000 0.025000 -0.000003 0.000003 -1.000000 255 255 255
-0.041111 -0.048889 0.025000 -0.000003 0.000003 -1.000000 255 255 255
-0.040237 -0.047750 0.025000 -0.000003 0.000003 -1.000000 255 255 255
-0.043576 -0.039687 0.025000 0.000000 0.000001 -1.000000 255 255 255
-0.157750 0.040237 0.025000 0.000000 0.000001 -1.000000 255 255 255
-0.042250 -0.040237 0.025000 0.000000 0.000001 -1.000000 255 255 255
-0.156424 0.039687 0.025000 0.000000 0.000001 -1.000000 255 255 255
-0.156424 0.039687 0.025000 0.000000 0.000000 -1.000000 255 255 255
-0.040237 -0.047750 0.025000 0.000003 -0.000003 -1.000000 255 255 255
-0.039687 -0.046424 0.025000 0.000003 -0.000003 -1.000000 255 255 255
0.220000 0.275000 0.025000 0.000003 -0.000003 -1.000000 255 255 255
-0.039687 -0.046424 0.025000 -0.000000 0.000000 -1.000000 255 255 255
-0.039500 -0.045000 0.025000 -0.000000 0.000000 -1.000000 255 255 255
-0.039687 -0.043576 0.025000 -0.000000 -0.000000 -1.000000 255 255 255
-0.041111 -0.041111 0.025000 -0.000000 -0.000000 -1.000000 255 255 255
-0.048889 -0.048889 0.025000 -0.000000 -0.000000 -1.000000 255 255 255
-0.047750 -0.049763 0.025000 -0.000000 -0.000000 -1.000000 255 255 255
-0.046424 -0.050313 0.025000 -0.000000 -0.000000 -1.000000 255 255 255
-0.045000 -0.050500 0.025000 -0.000000 -0.000000 -1.000000 255 255 255
-0.049763 0.042250 0.025000 -0.000000 -0.000000 -1.000000 255 255 255
-0.048889 0.041111 0.025000 -0.000000 -0.000000 -1.000000 255 255 255
-0.047750 0.040237 0.025000 -0.000000 -0.000000 -1.000000 255 255 255
-0.040237 -0.042250 0.025000 0.000000 -0.000000 -1.000000 255 255 255
-0.042250 0.040237 0.025000 0.000000 -0.000000 -1.000000 255 255 255
-0.041111 0.041111 0.025000 0.000000 -0.000000 -1.000000 255 255 255
-0.043576 0.039687 0.025000 0.000000 -0.000000 -1.000000 255 255 255
-0.039687 -0.043576 0.025000 -0.000001 0.000001 -1.000000 255 255 255
-0.040237 -0.042250 0.025000 -0.000001 0.000001 -1.000000 255 255 255
0.220000 0.275000 0.025000 -0.000001 0.000001 -1.000000 255 255 255
0.195000 0.275000 0.025000 -0.000000 -0.000000 -1.000000 255 255 255
0.195000 0.275000 0.025000 -0.000001 0.000001 -1.000000 255 255 255
-0.041111 0.041111 0.025000 -0.000001 0.000001 -1.000000 255 255 255
-0.040237 0.042250 0.025000 -0.000001 0.000001 -1.000000 255 255 255
-0.040237 0.042250 0.025000 -0.000000 0.000000 -1.000000 255 255 255
0.195000 0.300000 0.025000 0.000003 -0.000002 -1.000000 255 255 255
-0.040237 0.042250 0.025000 0.000003 -0.000002 -1.000000 255 255 255
-0.039687 0.043576 0.025000 0.000003 -0.000002 -1.000000 255 255 255
-0.039687 0.043576 0.025000 -0.000000 0.000000 -1.000000 255 255 255
-0.220000 0.275000 0.030000 0.000000 1.000000 -0.000000 255 255 255
-0.195000 0.275000 0.030000 0.000000 1.000000 -0.000000 255 255 255
-0.220000 0.275000 0.025000 0.000000 1.000000 -0.000000 255 255 255
-0.195000 0.275000 0.025000 0.000000 1.000000 -0.000000 255 255 255
-0.220000 -0.275000 0.030000 -1.000000 -0.000000 0.000000 255 255 255
-0.220000 0.275000 0.030000 -1.000000 -0.000000 0.000000 255 255 255
-0.220000 -0.275000 0.025000 -1.000000 -0.000000 0.000000 255 255 255
-0.220000 -0.275000 0.025000 -1.000000 -0.000000 0.000003 255 255 255
-0.220000 0.275000 0.030000 -1.000000 -0.000000 0.000003 255 255 255
-0.220000 0.275000 0.025000 -1.000000 -0.000000 0.000003 255 255 255
-0.195000 -0.275000 0.030000 0.000000 -1.000000 0.000000 255 255 255
-0.220000 -0.275000 0.030000 0.000000 -1.000000 0.000000 255 255 255
-0.195000 -0.275000 0.025000 0.000000 -1.000000 0.000000 255 255 255
-0.220000 -0.275000 0.025000 0.000000 -1.000000 0.000000 255 255 255
-0.195000 -0.300000 0.030000 -1.000000 0.000000 0.000000 255 255 255
-0.195000 -0.275000 0.030000 -1.000000 0.000000 0.000000 255 255 255
-0.195000 -0.300000 0.025000 -1.000000 0.000000 0.000000 255 255 255
-0.195000 -0.275000 0.025000 -1.000000 -0.000000 0.000000 255 255 255
0.195000 -0.300000 0.030000 0.000000 -1.000000 0.000000 255 255 255
-0.195000 -0.300000 0.030000 0.000000 -1.000000 0.000000 255 255 255
0.195000 -0.300000 0.025000 0.000000 -1.000000 0.000000 255 255 255
-0.195000 -0.300000 0.025000 0.000000 -1.000000 0.000000 255 255 255
0.195000 -0.275000 0.030000 1.000000 0.000000 -0.000000 255 255 255
0.195000 -0.300000 0.030000 1.000000 0.000000 -0.000000 255 255 255
0.195000 -0.275000 0.025000 1.000000 0.000000 -0.000000 255 255 255
0.195000 -0.300000 0.025000 1.000000 -0.000000 0.000000 255 255 255
0.220000 -0.275000 0.030000 0.000000 -1.000000 0.000000 255 255 255
0.195000 -0.275000 0.030000 0.000000 -1.000000 0.000000 255 255 255
0.220000 -0.275000 0.025000 0.000000 -1.000000 0.000000 255 255 255
0.195000 -0.275000 0.025000 0.000000 -1.000000 0.000000 255 255 255
0.220000 0.275000 0.030000 1.000000 0.000000 -0.000003 255 255 255
0.220000 -0.275000 0.030000 1.000000 0.000000 -0.000003 255 255 255
0.220000 0.275000 0.025000 1.000000 0.000000 -0.000003 255 255 255
0.220000 0.275000 0.025000 1.000000 0.000000 -0.000000 255 255 255
0.220000 -0.275000 0.030000 1.000000 0.000000 -0.000000 255 255 255
0.220000 -0.275000 0.025000 1.000000 0.000000 -0.000000 255 255 255
0.195000 0.275000 0.030000 0.000000 1.000000 -0.000000 255 255 255
0.220000 0.275000 0.030000 0.000000 1.000000 -0.000000 255 255 255
0.195000 0.275000 0.025000 0.000000 1.000000 -0.000000 255 255 255
0.220000 0.275000 0.025000 0.000000 1.000000 -0.000000 255 255 255
0.195000 0.300000 0.030000 1.000000 0.000001 0.000000 255 255 255
0.195000 0.275000 0.030000 1.000000 0.000001 0.000000 255 255 255
0.195000 0.300000 0.025000 1.000000 0.000001 0.000000 255 255 255
0.195000 0.300000 0.025000 1.000000 0.000000 -0.000003 255 255 255
0.195000 0.275000 0.030000 1.000000 0.000000 -0.000003 255 255 255
0.195000 0.275000 0.025000 1.000000 0.000000 -0.000003 255 255 255
-0.195000 0.300000 0.030000 0.000000 1.000000 -0.000000 255 255 255
0.195000 0.300000 0.030000 0.000000 1.000000 -0.000000 255 255 255
-0.195000 0.300000 0.025000 0.000000 1.000000 -0.000000 255 255 255
0.195000 0.300000 0.025000 0.000000 1.000000 -0.000000 255 255 255
-0.195000 0.275000 0.030000 -1.000000 -0.000001 0.000003 255 255 255
-0.195000 0.300000 0.030000 -1.000000 -0.000001 0.000003 255 255 255
-0.195000 0.275000 0.025000 -1.000000 -0.000001 0.000003 255 255 255
-0.195000 0.275000 0.025000 -1.000000 -0.000000 0.000000 255 255 255
-0.195000 0.300000 0.030000 -1.000000 -0.000000 0.000000 255 255 255
-0.195000 0.300000 0.025000 -1.000000 -0.000000 0.000000 255 255 255
-0.160500 0.045000 0.030000 0.991486 -0.130209 0.000000 255 255 255
-0.160500 0.045000 0.025000 0.991486 -0.130209 0.000000 255 255 255
-0.160313 0.046424 0.030000 0.991486 -0.130209 0.000000 255 255 255
-0.160313 0.046424 0.025000 0.991486 -0.130209 0.000000 255 255 255
-0.160313 0.046424 0.030000 0.923693 -0.383132 0.000000 255 255 255
-0.160313 0.046424 0.025000 0.923693 -0.383132 0.000000 255 255 255
-0.159763 0.047750 0.030000 0.923693 -0.383132 0.000000 255 255 255
-0.159763 0.047750 0.025000 0.923693 -0.383132 0.000000 255 255 255
-0.159763 0.047750 0.030000 0.793349 -0.608767 0.000000 255 255 255
-0.159763 0.047750 0.025000 0.793349 -0.608767 0.000000 255 255 255
-0.158889 0.048889 0.030000 0.793349 -0.608767 0.000000 255 255 255
-0.158889 0.048889 0.025000 0.793349 -0.608767 0.000000 255 255 255
-0.158889 0.048889 0.030000 0.608768 -0.793348 0.000000 255 255 255
-0.158889 0.048889 0.025000 0.608768 -0.793348 0.000000 255 255 255
-0.157750 0.049763 0.030000 0.608768 -0.793348 0.000000 255 255 255
-0.157750 0.049763 0.025000 0.608768 -0.793348 0.000000 255 255 255
-0.157750 0.049763 0.030000 0.383131 -0.923694 0.000000 255 255 255
-0.157750 0.049763 0.025000 0.383131 -0.923694 0.000000 255 255 255
-0.156424 0.050313 0.030000 0.383131 -0.923694 0.000000 255 255 255
-0.156424 0.050313 0.025000 0.383131 -0.923694 0.000000 255 255 255
-0.156424 0.050313 0.030000 0.130204 -0.991487 0.000000 255 255 255
-0.156424 0.050313 0.025000 0.130204 -0.991487 0.000000 255 255 255
-0.155000 0.050500 0.030000 0.130204 -0.991487 0.000000 255 255 255
-0.155000 0.050500 0.025000 0.130204 -0.991487 0.000000 255 255 255
-0.155000 0.050500 0.030000 -0.130204 -0.991487 0.000000 255 255 255
-0.155000 0.050500 0.025000 -0.130204 -0.991487 0.000000 255 255 255
-0.153576 0.050313 0.030000 -0.130204 -0.991487 0.000000 255 255 255
-0.153576 0.050313 0.025000 -0.130204 -0.991487 0.000000 255 255 255
-0.153576 0.050313 0.030000 -0.383131 -0.923694 0.000000 255 255 255
-0.153576 0.050313 0.025000 -0.383131 -0.923694 0.000000 255 255 255
-0.152250 0.049763 0.030000 -0.383131 -0.923694 0.000000 255 255 255
-0.152250 0.049763 0.025000 -0.383131 -0.923694 0.000000 255 255 255
-0.152250 0.049763 0.030000 -0.608768 -0.793348 0.000000 255 255 255
-0.152250 0.049763 0.025000 -0.608768 -0.793348 0.000000 255 255 255
-0.151111 0.048889 0.030000 -0.608768 -0.793348 0.000000 255 255 255
-0.151111 0.048889 0.025000 -0.608768 -0.793348 0.000000 255 255 255
-0.151111 0.048889 0.030000 -0.793344 -0.608773 0.000000 255 255 255
-0.151111 0.048889 0.025000 -0.793344 -0.608773 0.000000 255 255 255
-0.150237 0.047750 0.030000 -0.793344 -0.608773 0.000000 255 255 255
-0.150237 0.047750 0.025000 -0.793344 -0.608773 0.000000 255 255 255
-0.150237 0.047750 0.030000 -0.923697 -0.383124 0.000000 255 255 255
-0.150237 0.047750 0.025000 -0.923697 -0.383124 0.000000 255 255 255
-0.149687 0.046424 0.030000 -0.923697 -0.383124 0.000000 255 255 255
-0.149687 0.046424 0.025000 -0.923697 -0.383124 0.000000 255 255 255
-0.149687 0.046424 0.030000 -0.991486 -0.130209 0.000000 255 255 255
-0.149687 0.046424 0.025000 -0.991486 -0.130209 0.000000 255 255 255
-0.149500 0.045000 0.030000 -0.991486 -0.130209 0.000000 255 255 255
-0.149500 0.045000 0.025000 -0.991486 -0.130209 0.000000 255 255 255
-0.149500 0.045000 0.030000 -0.991487 0.130209 0.000000 255 255 255
-0.149500 0.045000 0.025000 -0.991487 0.130209 0.000000 255 255 255
-0.149687 0.043576 0.030000 -0.991487 0.130209 0.000000 255 255 255
-0.149687 0.043576 0.025000 -0.991487 0.130209 0.000000 255 255 255
-0.149687 0.043576 0.030000 -0.923697 0.383124 0.000000 255 255 255
-0.149687 0.043576 0.025000 -0.923697 0.383124 0.000000 255 255 255
-0.150237 0.042250 0.030000 -0.923697 0.383124 0.000000 255 255 255
-0.150237 0.042250 0.025000 -0.923697 0.383124 0.000000 255 255 255
-0.150237 0.042250 0.030000 -0.793344 0.608773 0.000000 255 255 255
-0.150237 0.042250 0.025000 -0.793344 0.608773 0.000000 255 255 255
-0.151111 0.041111 0.030000 -0.793344 0.608773 0.000000 255 255 255
-0.151111 0.041111 0.025000 -0.793344 0.608773 0.000000 255 255 255
-0.151111 0.041111 0.030000 -0.608768 0.793348 0.000000 255 255 255
-0.151111 0.041111 0.025000 -0.608768 0.793348 0.000000 255 255 255
-0.152250 0.040237 0.030000 -0.608768 0.793348 0.000000 255 255 255
-0.152250 0.040237 0.025000 -0.608768 0.793348 0.000000 255 255 255
-0.152250 0.040237 0.030000 -0.383131 0.923694 0.000000 255 255 255
-0.152250 0.040237 0.025000 -0.383131 0.923694 0.000000 255 255 255
-0.153576 0.039687 0.030000 -0.383131 0.923694 0.000000 255 255 255
-0.153576 0.039687 0.025000 -0.383131 0.923694 0.000000 255 255 255
-0.153576 0.039687 0.030000 -0.130201 0.991488 0.000000 255 255 255
-0.153576 0.039687 0.025000 -0.130201 0.991488 0.000000 255 255 255
-0.155000 0.039500 0.030000 -0.130201 0.991488 0.000000 255 255 255
-0.155000 0.039500 0.025000 -0.130201 0.991488 0.000000 255 255 255
-0.155000 0.039500 0.030000 0.130201 0.991488 -0.000000 255 255 255
-0.155000 0.039500 0.025000 0.130201 0.991488 -0.000000 255 255 255
-0.156424 0.039687 0.030000 0.130201 0.991488 -0.000000 255 255 255
-0.156424 0.039687 0.025000 0.130201 0.991488 0.000000 255 255 255
-0.156424 0.039687 0.030000 0.383131 0.923694 -0.000000 255 255 255
-0.156424 0.039687 0.025000 0.383131 0.923694 -0.000000 255 255 255
-0.157750 0.040237 0.030000 0.383131 0.923694 -0.000000 255 255 255
-0.157750 0.040237 0.025000 0.383131 0.923694 0.000000 255 255 255
-0.157750 0.040237 0.030000 0.608768 0.793348 -0.000000 255 255 255
-0.157750 0.040237 0.025000 0.608768 0.793348 -0.000000 255 255 255
-0.158889 0.041111 0.030000 0.608768 0.793348 -0.000000 255 255 255
-0.158889 0.041111 0.025000 0.608768 0.793348 0.000000 255 255 255
-0.158889 0.041111 0.030000 0.793349 0.608767 -0.000000 255 255 255
-0.158889 0.041111 0.025000 0.793349 0.608767 -0.000000 255 255 255
-0.159763 0.042250 0.030000 0.793349 0.608767 -0.000000 255 255 255
-0.159763 0.042250 0.025000 0.793349 0.608767 0.000000 255 255 255
-0.159763 0.042250 0.030000 0.923693 0.383132 -0.000000 255 255 255
-0.159763 0.042250 0.025000 0.923693 0.383132 -0.000000 255 255 255
-0.160313 0.043576 0.030000 0.923693 0.383132 -0.000000 255 255 255
-0.160313 0.043576 0.025000 0.923693 0.383132 0.000000 255 255 255
-0.160313 0.043576 0.030000 0.991487 0.130209 -0.000000 255 255 255
-0.160313 0.043576 0.025000 0.991487 0.130209 -0.000000 255 255 255
-0.160500 0.045000 0.030000 0.991487 0.130209 -0.000000 255 255 255
-0.160500 0.045000 0.025000 0.991487 0.130209 0.000000 255 255 255
-0.050500 0.045000 0.030000 0.991487 -0.130204 0.000000 255 255 255
-0.050500 0.045000 0.025000 0.991487 -0.130204 0.000000 255 255 255
-0.050313 0.046424 0.030000 0.991487 -0.130204 0.000000 255 255 255
-0.050313 0.046424 0.025000 0.991487 -0.130204 0.000000 255 255 255
-0.050313 0.046424 0.030000 0.923694 -0.383130 0.000000 255 255 255
-0.050313 0.046424 0.025000 0.923694 -0.383130 0.000000 255 255 255
-0.049763 0.047750 0.030000 0.923694 -0.383130 0.000000 255 255 255
-0.049763 0.047750 0.025000 0.923694 -0.383130 0.000000 255 255 255
-0.049763 0.047750 0.030000 0.793348 -0.608768 0.000000 255 255 255
-0.049763 0.047750 0.025000 0.793348 -0.608768 0.000000 255 255 255
-0.048889 0.048889 0.030000 0.793348 -0.608768 0.000000 255 255 255
-0.048889 0.048889 0.025000 0.793348 -0.608768 0.000000 255 255 255
-0.048889 0.048889 0.030000 0.608768 -0.793348 0.000000 255 255 255
-0.048889 0.048889 0.025000 0.608768 -0.793348 0.000000 255 255 255
-0.047750 0.049763 0.030000 0.608768 -0.793348 0.000000 255 255 255
-0.047750 0.049763 0.025000 0.608768 -0.793348 0.000000 255 255 255
-0.047750 0.049763 0.030000 0.383130 -0.923694 0.000000 255 255 255
-0.047750 0.049763 0.025000 0.383130 -0.923694 0.000000 255 255 255
-0.046424 0.050313 0.030000 0.383130 -0.923694 0.000000 255 255 255
-0.046424 0.050313 0.025000 0.383130 -0.923694 0.000000 255 255 255
-0.046424 0.050313 0.030000 0.130204 -0.991487 0.000000 255 255 255
-0.046424 0.050313 0.025000 0.130204 -0.991487 0.000000 255 255 255
-0.045000 0.050500 0.030000 0.130204 -0.991487 0.000000 255 255 255
-0.045000 0.050500 0.025000 0.130204 -0.991487 0.000000 255 255 255
-0.045000 0.050500 0.030000 -0.130204 -0.991487 0.000000 255 255 255
-0.045000 0.050500 0.025000 -0.130204 -0.991487 0.000000 255 255 255
-0.043576 0.050313 0.030000 -0.130204 -0.991487 0.000000 255 255 255
-0.043576 0.050313 0.025000 -0.130204 -0.991487 0.000000 255 255 255
-0.043576 0.050313 0.030000 -0.383128 -0.923695 0.000000 255 255 255
-0.043576 0.050313 0.025000 -0.383128 -0.923695 0.000000 255 255 255
-0.042250 0.049763 0.030000 -0.383128 -0.923695 0.000000 255 255 255
-0.042250 0.049763 0.025000 -0.383128 -0.923695 0.000000 255 255 255
-0.042250 0.049763 0.030000 -0.608768 -0.793348 0.000000 255 255 255
-0.042250 0.049763 0.025000 -0.608768 -0.793348 0.000000 255 255 255
-0.041111 0.048889 0.030000 -0.608768 -0.793348 0.000000 255 255 255
-0.041111 0.048889 0.025000 -0.608768 -0.793348 0.000000 255 255 255
-0.041111 0.048889 0.030000 -0.793348 -0.608768 0.000000 255 255 255
-0.041111 0.048889 0.025000 -0.793348 -0.608768 0.000000 255 255 255
-0.040237 0.047750 0.030000 -0.793348 -0.608768 0.000000 255 255 255
-0.040237 0.047750 0.025000 -0.793348 -0.608768 0.000000 255 255 255
-0.040237 0.047750 0.030000 -0.923694 -0.383130 0.000000 255 255 255
-0.040237 0.047750 0.025000 -0.923694 -0.383130 0.000000 255 255 255
-0.039687 0.046424 0.030000 -0.923694 -0.383130 0.000000 255 255 255
-0.039687 0.046424 0.025000 -0.923694 -0.383130 0.000000 255 255 255
-0.039687 0.046424 0.030000 -0.991488 -0.130201 0.000000 255 255 255
-0.039687 0.046424 0.025000 -0.991488 -0.130201 0.000000 255 255 255
-0.039500 0.045000 0.030000 -0.991488 -0.130201 0.000000 255 255 255
-0.039500 0.045000 0.025000 -0.991488 -0.130201 0.000000 255 255 255
-0.039500 0.045000 0.030000 -0.991488 0.130201 0.000000 255 255 255
-0.039500 0.045000 0.025000 -0.991488 0.130201 0.000000 255 255 255
-0.039687 0.043576 0.030000 -0.991488 0.130201 0.000000 255 255 255
-0.039687 0.043576 0.025000 -0.991488 0.130201 0.000000 255 255 255
-0.039687 0.043576 0.030000 -0.923694 0.383130 0.000000 255 255 255
-0.039687 0.043576 0.025000 -0.923694 0.383130 0.000000 255 255 255
-0.040237 0.042250 0.030000 -0.923694 0.383130 0.000000 255 255 255
-0.040237 0.042250 0.025000 -0.923694 0.383130 0.000000 255 255 255
-0.040237 0.042250 0.030000 -0.793348 0.608768 0.000000 255 255 255
-0.040237 0.042250 0.025000 -0.793348 0.608768 0.000000 255 255 255
-0.041111 0.041111 0.030000 -0.793348 0.608768 0.000000 255 255 255
-0.041111 0.041111 0.025000 -0.793348 0.608768 0.000000 255 255 255
-0.041111 0.041111 0.030000 -0.608768 0.793348 0.000000 255 255 255
-0.041111 0.041111 0.025000 -0.608768 0.793348 0.000000 255 255 255
-0.042250 0.040237 0.030000 -0.608768 0.793348 0.000000 255 255 255
-0.042250 0.040237 0.025000 -0.608768 0.793348 0.000000 255 255 255
-0.042250 0.040237 0.030000 -0.383132 0.923693 0.000000 255 255 255
-0.042250 0.040237 0.025000 -0.383132 0.923693 0.000000 255 255 255
-0.043576 0.039687 0.030000 -0.383132 0.923693 0.000000 255 255 255
-0.043576 0.039687 0.025000 -0.383132 0.923693 0.000000 255 255 255
-0.043576 0.039687 0.030000 -0.130201 0.991488 0.000000 255 255 255
-0.043576 0.039687 0.025000 -0.130201 0.991488 0.000000 255 255 255
-0.045000 0.039500 0.030000 -0.130201 0.991488 0.000000 255 255 255
-0.045000 0.039500 0.025000 -0.130201 0.991488 0.000000 255 255 255
-0.045000 0.039500 0.030000 0.130201 0.991488 -0.000000 255 255 255
-0.045000 0.039500 0.025000 0.130201 0.991488 -0.000000 255 255 255
-0.046424 0.039687 0.030000 0.130201 0.991488 -0.000000 255 255 255
-0.046424 0.039687 0.025000 0.130201 0.991488 0.000000 255 255 255
-0.046424 0.039687 0.030000 0.383130 0.923694 -0.000000 255 255 255
-0.046424 0.039687 0.025000 0.383130 0.923694 -0.000000 255 255 255
-0.047750 0.040237 0.030000 0.383130 0.923694 -0.000000 255 255 255
-0.047750 0.040237 0.025000 0.383130 0.923694 0.000000 255 255 255
-0.047750 0.040237 0.030000 0.608768 0.793348 -0.000000 255 255 255
-0.047750 0.040237 0.025000 0.608768 0.793348 -0.000000 255 255 255
-0.048889 0.041111 0.030000 0.608768 0.793348 -0.000000 255 255 255
-0.048889 0.041111 0.025000 0.608768 0.793348 0.000000 255 255 255
-0.048889 0.041111 0.030000 0.793348 0.608768 -0.000000 255 255 255
-0.048889 0.041111 0.025000 0.793348 0.608768 -0.000000 255 255 255
-0.049763 0.042250 0.030000 0.793348 0.608768 -0.000000 255 255 255
-0.049763 0.042250 0.025000 0.793348 0.608768 0.000000 255 255 255
-0.049763 0.042250 0.030000 0.923694 0.383130 -0.000000 255 255 255
-0.049763 0.042250 0.025000 0.923694 0.383130 -0.000000 255 255 255
-0.050313 0.043576 0.030000 0.923694 0.383130 -0.000000 255 255 255
-0.050313 0.043576 0.025000 0.923694 0.383130 0.000000 255 255 255
-0.050313 0.043576 0.030000 0.991487 0.130204 -0.000000 255 255 255
-0.050313 0.043576 0.025000 0.991487 0.130204 -0.000000 255 255 255
-0.050500 0.045000 0.030000 0.991487 0.130204 -0.000000 255 255 255
-0.050500 0.045000 0.025000 0.991487 0.130204 0.000000 255 255 255
-0.050500 -0.045000 0.030000 0.991487 -0.130204 0.000000 255 255 255
-0.050500 -0.045000 0.025000 0.991487 -0.130204 0.000000 255 255 255
-0.050313 -0.043576 0.030000 0.991487 -0.130204 0.000000 255 255 255
-0.050313 -0.043576 0.025000 0.991487 -0.130204 0.000000 255 255 255
-0.050313 -0.043576 0.030000 0.923694 -0.383130 0.000000 255 255 255
-0.050313 -0.043576 0.025000 0.923694 -0.383130 0.000000 255 255 255
-0.049763 -0.042250 0.030000 0.923694 -0.383130 0.000000 255 255 255
-0.049763 -0.042250 0.025000 0.923694 -0.383130 0.000000 255 255 255
-0.049763 -0.042250 0.030000 0.793348 -0.608768 0.000000 255 255 255
-0.049763 -0.042250 0.025000 0.793348 -0.608768 0.000000 255 255 255
-0.048889 -0.041111 0.030000 0.793348 -0.608768 0.000000 255 255 255
-0.048889 -0.041111 0.025000 0.793348 -0.608768 0.000000 255 255 255
-0.048889 -0.041111 0.030000 0.608768 -0.793348 0.000000 255 255 255
-0.048889 -0.041111 0.025000 0.608768 -0.793348 0.000000 255 255 255
-0.047750 -0.040237 0.030000 0.608768 -0.793348 0.000000 255 255 255
-0.047750 -0.040237 0.025000 0.608768 -0.793348 0.000000 255 255 255
-0.047750 -0.040237 0.030000 0.383130 -0.923694 0.000000 255 255 255
-0.047750 -0.040237 0.025000 0.383130 -0.923694 0.000000 255 255 255
-0.046424 -0.039687 0.030000 0.383130 -0.923694 0.000000 255 255 255
-0.046424 -0.039687 0.025000 0.383130 -0.923694 0.000000 255 255 255
-0.046424 -0.039687 0.030000 0.130201 -0.991488 0.000000 255 255 255
-0.046424 -0.039687 0.025000 0.130201 -0.991488 0.000000 255 255 255
-0.045000 -0.039500 0.030000 0.130201 -0.991488 0.000000 255 255 255
-0.045000 -0.039500 0.025000 0.130201 -0.991488 0.000000 255 255 255
-0.045000 -0.039500 0.030000 -0.130201 -0.991488 0.000000 255 255 255
-0.045000 -0.039500 0.025000 -0.130201 -0.991488 0.000000 255 255 255
-0.043576 -0.039687 0.030000 -0.130201 -0.991488 0.000000 255 255 255
-0.043576 -0.039687 0.025000 -0.130201 -0.991488 0.000000 255 255 255
-0.043576 -0.039687 0.030000 -0.383128 -0.923695 0.000000 255 255 255
-0.043576 -0.039687 0.025000 -0.383128 -0.923695 0.000000 255 255 255
-0.042250 -0.040237 0.030000 -0.383128 -0.923695 0.000000 255 255 255
-0.042250 -0.040237 0.025000 -0.383128 -0.923695 0.000000 255 255 255
-0.042250 -0.040237 0.030000 -0.608768 -0.793348 0.000000 255 255 255
-0.042250 -0.040237 0.025000 -0.608768 -0.793348 0.000000 255 255 255
-0.041111 -0.041111 0.030000 -0.608768 -0.793348 0.000000 255 255 255
-0.041111 -0.041111 0.025000 -0.608768 -0.793348 0.000000 255 255 255
-0.041111 -0.041111 0.030000 -0.793348 -0.608768 0.000000 255 255 255
-0.041111 -0.041111 0.025000 -0.793348 -0.608768 0.000000 255 255 255
-0.040237 -0.042250 0.030000 -0.793348 -0.608768 0.000000 255 255 255
-0.040237 -0.042250 0.025000 -0.793348 -0.608768 0.000000 255 255 255
-0.040237 -0.042250 0.030000 -0.923694 -0.383130 0.000000 255 255 255
-0.040237 -0.042250 0.025000 -0.923694 -0.383130 0.000000 255 255 255
-0.039687 -0.043576 0.030000 -0.923694 -0.383130 0.000000 255 255 255
-0.039687 -0.043576 0.025000 -0.923694 -0.383130 0.000000 255 255 255
-0.039687 -0.043576 0.030000 -0.991488 -0.130201 0.000000 255 255 255
-0.039687 -0.043576 0.025000 -0.991488 -0.130201 0.000000 255 255 255
-0.039500 -0.045000 0.030000 -0.991488 -0.130201 0.000000 255 255 255
-0.039500 -0.045000 0.025000 -0.991488 -0.130201 0.000000 255 255 255
-0.039500 -0.045000 0.030000 -0.991488 0.130201 0.000000 255 255 255
-0.039500 -0.045000 0.025000 -0.991488 0.130201 0.000000 255 255 255
-0.039687 -0.046424 0.030000 -0.991488 0.130201 0.000000 255 255 255
-0.039687 -0.046424 0.025000 -0.991488 0.130201 0.000000 255 255 255
-0.039687 -0.046424 0.030000 -0.923694 0.383130 0.000000 255 255 255
-0.039687 -0.046424 0.025000 -0.923694 0.383130 0.000000 255 255 255
-0.040237 -0.047750 0.030000 -0.923694 0.383130 0.000000 255 255 255
-0.040237 -0.047750 0.025000 -0.923694 0.383130 0.000000 255 255 255
-0.040237 -0.047750 0.030000 -0.793348 0.608768 0.000000 255 255 255
-0.040237 -0.047750 0.025000 -0.793348 0.608768 0.000000 255 255 255
-0.041111 -0.048889 0.030000 -0.793348 0.608768 0.000000 255 255 255
-0.041111 -0.048889 0.025000 -0.793348 0.608768 0.000000 255 255 255
-0.041111 -0.048889 0.030000 -0.608768 0.793348 0.000000 255 255 255
-0.041111 -0.048889 0.025000 -0.608768 0.793348 0.000000 255 255 255
-0.042250 -0.049763 0.030000 -0.608768 0.793348 0.000000 255 255 255
-0.042250 -0.049763 0.025000 -0.608768 0.793348 0.000000 255 255 255
-0.042250 -0.049763 0.030000 -0.383132 0.923693 0.000000 255 255 255
-0.042250 -0.049763 0.025000 -0.383132 0.923693 0.000000 255 255 255
-0.043576 -0.050313 0.030000 -0.383132 0.923693 0.000000 255 255 255
-0.043576 -0.050313 0.025000 -0.383132 0.923693 0.000000 255 255 255
-0.043576 -0.050313 0.030000 -0.130204 0.991487 0.000000 255 255 255
-0.043576 -0.050313 0.025000 -0.130204 0.991487 0.000000 255 255 255
-0.045000 -0.050500 0.030000 -0.130204 0.991487 0.000000 255 255 255
-0.045000 -0.050500 0.025000 -0.130204 0.991487 0.000000 255 255 255
-0.045000 -0.050500 0.030000 0.130204 0.991487 -0.000000 255 255 255
-0.045000 -0.050500 0.025000 0.130204 0.991487 -0.000000 255 255 255
-0.046424 -0.050313 0.030000 0.130204 0.991487 -0.000000 255 255 255
-0.046424 -0.050313 0.025000 0.130204 0.991487 0.000000 255 255 255
-0.046424 -0.050313 0.030000 0.383130 0.923694 -0.000000 255 255 255
-0.046424 -0.050313 0.025000 0.383130 0.923694 -0.000000 255 255 255
-0.047750 -0.049763 0.030000 0.383130 0.923694 -0.000000 255 255 255
-0.047750 -0.049763 0.025000 0.383130 0.923694 0.000000 255 255 255
-0.047750 -0.049763 0.030000 0.608768 0.793348 -0.000000 255 255 255
-0.047750 -0.049763 0.025000 0.608768 0.793348 -0.000000 255 255 255
-0.048889 -0.048889 0.030000 0.608768 0.793348 -0.000000 255 255 255
-0.048889 -0.048889 0.025000 0.608768 0.793348 0.000000 255 255 255
-0.048889 -0.048889 0.030000 0.793348 0.608768 -0.000000 255 255 255
-0.048889 -0.048889 0.025000 0.793348 0.608768 -0.000000 255 255 255
-0.049763 -0.047750 0.030000 0.793348 0.608768 -0.000000 255 255 255
-0.049763 -0.047750 0.025000 0.793348 0.608768 0.000000 255 255 255
-0.049763 -0.047750 0.030000 0.923694 0.383130 -0.000000 255 255 255
-0.049763 -0.047750 0.025000 0.923694 0.383130 -0.000000 255 255 255
-0.050313 -0.046424 0.030000 0.923694 0.383130 -0.000000 255 255 255
-0.050313 -0.046424 0.025000 0.923694 0.383130 0.000000 255 255 255
-0.050313 -0.046424 0.030000 0.991487 0.130204 -0.000000 255 255 255
-0.050313 -0.046424 0.025000 0.991487 0.130204 -0.000000 255 255 255
-0.050500 -0.045000 0.030000 0.991487 0.130204 -0.000000 255 255 255
-0.050500 -0.045000 0.025000 0.991487 0.130204 0.000000 255 255 255
-0.160500 -0.045000 0.030000 0.991487 -0.130209 0.000000 255 255 255
-0.160500 -0.045000 0.025000 0.991487 -0.130209 0.000000 255 255 255
-0.160313 -0.043576 0.030000 0.991487 -0.130209 0.000000 255 255 255
-0.160313 -0.043576 0.025000 0.991487 -0.130209 0.000000 255 255 255
-0.160313 -0.043576 0.030000 0.923693 -0.383132 0.000000 255 255 255
-0.160313 -0.043576 0.025000 0.923693 -0.383132 0.000000 255 255 255
-0.159763 -0.042250 0.030000 0.923693 -0.383132 0.000000 255 255 255
-0.159763 -0.042250 0.025000 0.923693 -0.383132 0.000000 255 255 255
-0.159763 -0.042250 0.030000 0.793349 -0.608767 0.000000 255 255 255
-0.159763 -0.042250 0.025000 0.793349 -0.608767 0.000000 255 255 255
-0.158889 -0.041111 0.030000 0.793349 -0.608767 0.000000 255 255 255
-0.158889 -0.041111 0.025000 0.793349 -0.608767 0.000000 255 255 255
-0.158889 -0.041111 0.030000 0.608768 -0.793348 0.000000 255 255 255
-0.158889 -0.041111 0.025000 0.608768 -0.793348 0.000000 255 255 255
-0.157750 -0.040237 0.030000 0.608768 -0.793348 0.000000 255 255 255
-0.157750 -0.040237 0.025000 0.608768 -0.793348 0.000000 255 255 255
-0.157750 -0.040237 0.030000 0.383131 -0.923694 0.000000 255 255 255
-0.157750 -0.040237 0.025000 0.383131 -0.923694 0.000000 255 255 255
-0.156424 -0.039687 0.030000 0.383131 -0.923694 0.000000 255 255 255
-0.156424 -0.039687 0.025000 0.383131 -0.923694 0.000000 255 255 255
-0.156424 -0.039687 0.030000 0.130201 -0.991488 0.000000 255 255 255
-0.156424 -0.039687 0.025000 0.130201 -0.991488 0.000000 255 255 255
-0.155000 -0.039500 0.030000 0.130201 -0.991488 0.000000 255 255 255
-0.155000 -0.039500 0.025000 0.130201 -0.991488 0.000000 255 255 255
-0.155000 -0.039500 0.030000 -0.130201 -0.991488 0.000000 255 255 255
-0.155000 -0.039500 0.025000 -0.130201 -0.991488 0.000000 255 255 255
-0.153576 -0.039687 0.030000 -0.130201 -0.991488 0.000000 255 255 255
-0.153576 -0.039687 0.025000 -0.130201 -0.991488 0.000000 255 255 255
-0.153576 -0.039687 0.030000 -0.383131 -0.923694 0.000000 255 255 255
-0.153576 -0.039687 0.025000 -0.383131 -0.923694 0.000000 255 255 255
-0.152250 -0.040237 0.030000 -0.383131 -0.923694 0.000000 255 255 255
-0.152250 -0.040237 0.025000 -0.383131 -0.923694 0.000000 255 255 255
-0.152250 -0.040237 0.030000 -0.608768 -0.793348 0.000000 255 255 255
-0.152250 -0.040237 0.025000 -0.608768 -0.793348 0.000000 255 255 255
-0.151111 -0.041111 0.030000 -0.608768 -0.793348 0.000000 255 255 255
-0.151111 -0.041111 0.025000 -0.608768 -0.793348 0.000000 255 255 255
-0.151111 -0.041111 0.030000 -0.793344 -0.608773 0.000000 255 255 255
-0.151111 -0.041111 0.025000 -0.793344 -0.608773 0.000000 255 255 255
-0.150237 -0.042250 0.030000 -0.793344 -0.608773 0.000000 255 255 255
-0.150237 -0.042250 0.025000 -0.793344 -0.608773 0.000000 255 255 255
-0.150237 -0.042250 0.030000 -0.923697 -0.383124 0.000000 255 255 255
-0.150237 -0.042250 0.025000 -0.923697 -0.383124 0.000000 255 255 255
-0.149687 -0.043576 0.030000 -0.923697 -0.383124 0.000000 255 255 255
-0.149687 -0.043576 0.025000 -0.923697 -0.383124 0.000000 255 255 255
-0.149687 -0.043576 0.030000 -0.991487 -0.130209 0.000000 255 255 255
-0.149687 -0.043576 0.025000 -0.991487 -0.130209 0.000000 255 255 255
-0.149500 -0.045000 0.030000 -0.991487 -0.130209 0.000000 255 255 255
-0.149500 -0.045000 0.025000 -0.991487 -0.130209 0.000000 255 255 255
-0.149500 -0.045000 0.030000 -0.991486 0.130209 0.000000 255 255 255
-0.149500 -0.045000 0.025000 -0.991486 0.130209 0.000000 255 255 255
-0.149687 -0.046424 0.030000 -0.991486 0.130209 0.000000 255 255 255
-0.149687 -0.046424 0.025000 -0.991486 0.130209 0.000000 255 255 255
-0.149687 -0.046424 0.030000 -0.923697 0.383124 0.000000 255 255 255
-0.149687 -0.046424 0.025000 -0.923697 0.383124 0.000000 255 255 255
-0.150237 -0.047750 0.030000 -0.923697 0.383124 0.000000 255 255 255
-0.150237 -0.047750 0.025000 -0.923697 0.383124 0.000000 255 255 255
-0.150237 -0.047750 0.030000 -0.793344 0.608773 0.000000 255 255 255
-0.150237 -0.047750 0.025000 -0.793344 0.608773 0.000000 255 255 255
-0.151111 -0.048889 0.030000 -0.793344 0.608773 0.000000 255 255 255
-0.151111 -0.048889 0.025000 -0.793344 0.608773 0.000000 255 255 255
-0.151111 -0.048889 0.030000 -0.608768 0.793348 0.000000 255 255 255
-0.151111 -0.048889 0.025000 -0.608768 0.793348 0.000000 255 255 255
-0.152250 -0.049763 0.030000 -0.608768 0.793348 0.000000 255 255 255
-0.152250 -0.049763 0.025000 -0.608768 0.793348 0.000000 255 255 255
-0.152250 -0.049763 0.030000 -0.383131 0.923694 0.000000 255 255 255
-0.152250 -0.049763 0.025000 -0.383131 0.923694 0.000000 255 255 255
-0.153576 -0.050313 0.030000 -0.383131 0.923694 0.000000 255 255 255
-0.153576 -0.050313 0.025000 -0.383131 0.923694 0.000000 255 255 255
-0.153576 -0.050313 0.030000 -0.130204 0.991487 0.000000 255 255 255
-0.153576 -0.050313 0.025000 -0.130204 0.991487 0.000000 255 255 255
-0.155000 -0.050500 0.030000 -0.130204 0.991487 0.000000 255 255 255
-0.155000 -0.050500 0.025000 -0.130204 0.991487 0.000000 255 255 255
-0.155000 -0.050500 0.030000 0.130204 0.991487 -0.000000 255 255 255
-0.155000 -0.050500 0.025000 0.130204 0.991487 -0.000000 255 255 255
-0.156424 -0.050313 0.030000 0.130204 0.991487 -0.000000 255 255 255
-0.156424 -0.050313 0.025000 0.130204 0.991487 0.000000 255 255 255
-0.156424 -0.050313 0.030000 0.383131 0.923694 -0.000000 255 255 255
-0.156424 -0.050313 0.025000 0.383131 0.923694 -0.000000 255 255 255
-0.157750 -0.049763 0.030000 0.383131 0.923694 -0.000000 255 255 255
-0.157750 -0.049763 0.025000 0.383131 0.923694 0.000000 255 255 255
-0.157750 -0.049763 0.030000 0.608768 0.793348 -0.000000 255 255 255
-0.157750 -0.049763 0.025000 0.608768 0.793348 -0.000000 255 255 255
-0.158889 -0.048889 0.030000 0.608768 0.793348 -0.000000 255 255 255
-0.158889 -0.048889 0.025000 0.608768 0.793348 0.000000 255 255 255
-0.158889 -0.048889 0.030000 0.793349 0.608767 -0.000000 255 255 255
-0.158889 -0.048889 0.025000 0.793349 0.608767 -0.000000 255 255 255
-0.159763 -0.047750 0.030000 0.793349 0.608767 -0.000000 255 255 255
-0.159763 -0.047750 0.025000 0.793349 0.608767 0.000000 255 255 255
-0.159763 -0.047750 0.030000 0.923693 0.383132 -0.000000 255 255 255
-0.159763 -0.047750 0.025000 0.923693 0.383132 -0.000000 255 255 255
-0.160313 -0.046424 0.030000 0.923693 0.383132 -0.000000 255 255 255
-0.160313 -0.046424 0.025000 0.923693 0.383132 0.000000 255 255 255
-0.160313 -0.046424 0.030000 0.991486 0.130209 -0.000000 255 255 255
-0.160313 -0.046424 0.025000 0.991486 0.130209 -0.000000 255 255 255
-0.160500 -0.045000 0.030000 0.991486 0.130209 -0.000000 255 255 255
-0.160500 -0.045000 0.025000 0.991486 0.130209 0.000000 255 255 255
0.220000 0.275000 0.025000 0.000000 0.000000 1.000000 191 191 191
0.195000 0.275000 0.025000 0.000000 0.000000 1.000000 191 191 191
0.220000 -0.275000 0.025000 0.000000 0.000000 1.000000 191 191 191
0.195000 -0.275000 0.025000 0.000000 0.000000 1.000000 191 191 191
-0.195000 -0.275000 0.025000 0.000000 -0.000000 1.000000 191 191 191
-0.195000 -0.300000 0.025000 0.000000 -0.000000 1.000000 191 191 191
0.195000 -0.300000 0.025000 0.000000 0.000000 1.000000 191 191 191
-0.195000 0.300000 0.025000 0.000000 -0.000000 1.000000 191 191 191
-0.195000 0.275000 0.025000 0.000000 -0.000000 1.000000 191 191 191
0.195000 0.300000 0.025000 0.000000 -0.000000 1.000000 191 191 191
-0.220000 -0.275000 0.025000 0.000000 0.000000 1.000000 191 191 191
-0.220000 0.275000 0.025000 0.000000 0.000000 1.000000 191 191 191
0.195000 -0.275000 -0.000000 -0.000000 0.000000 -1.000000 191 191 191
0.220000 -0.300000 -0.000000 -0.000000 0.000000 -1.000000 191 191 191
-0.195000 -0.275000 0.000000 -0.000000 0.000000 -1.000000 191 191 191
-0.220000 -0.300000 0.000000 -0.000000 -0.000000 -1.000000 191 191 191
-0.195000 0.275000 0.000000 -0.000000 -0.000000 -1.000000 191 191 191
-0.220000 0.300000 0.000000 -0.000000 -0.000000 -1.000000 191 191 191
0.195000 0.275000 -0.000000 -0.000000 0.000000 -1.000000 191 191 191
0.220000 0.300000 -0.000000 -0.000000 -0.000000 -1.000000 191 191 191
0.195000 0.300000 0.475000 0.000000 1.000000 -0.000000 191 191 191
0.220000 0.300000 0.500000 0.000000 1.000000 -0.000000 191 191 191
0.195000 0.300000 0.025000 0.000000 1.000000 -0.000000 191 191 191
0.220000 0.300000 -0.000000 0.000000 1.000000 -0.000000 191 191 191
-0.195000 0.300000 0.025000 -0.000000 1.000000 -0.000000 191 191 191
-0.220000 0.300000 0.000000 -0.000000 1.000000 -0.000000 191 191 191
-0.195000 0.300000 0.475000 -0.000000 1.000000 0.000000 191 191 191
-0.220000 0.300000 0.500000 -0.000000 1.000000 0.000000 191 191 191
-0.220000 0.275000 0.475000 -1.000000 0.000000 0.000000 191 191 191
-0.220000 0.300000 0.500000 -1.000000 0.000000 0.000000 191 191 191
-0.220000 0.275000 0.025000 -1.000000 0.000000 0.000000 191 191 191
-0.220000 0.300000 0.000000 -1.000000 0.000000 0.000000 191 191 191
-0.220000 -0.275000 0.025000 -1.000000 -0.000000 -0.000000 191 191 191
-0.220000 -0.300000 0.000000 -1.000000 -0.000000 0.000000 191 191 191
-0.220000 -0.275000 0.475000 -1.000000 -0.000000 0.000000 191 191 191
-0.220000 -0.300000 0.500000 -1.000000 0.000000 0.000000 191 191 191
-0.220000 0.275000 0.475000 -1.000000 -0.000000 0.000001 191 191 191
-0.220000 -0.300000 0.500000 -1.000000 -0.000000 0.000001 191 191 191
-0.220000 0.300000 0.500000 -1.000000 -0.000000 0.000001 191 191 191
-0.195000 -0.300000 0.025000 -0.000000 -1.000000 0.000000 191 191 191
-0.220000 -0.300000 0.000000 -0.000000 -1.000000 0.000000 191 191 191
0.195000 -0.300000 0.025000 -0.000000 -1.000000 0.000000 191 191 191
0.220000 -0.300000 -0.000000 0.000000 -1.000000 0.000000 191 191 191
0.195000 -0.300000 0.475000 -0.000000 -1.000000 -0.000000 191 191 191
0.220000 -0.300000 0.500000 -0.000000 -1.000000 0.000000 191 191 191
-0.195000 -0.300000 0.475000 0.000000 -1.000000 -0.000000 191 191 191
-0.220000 -0.300000 0.500000 0.000000 -1.000000 -0.000000 191 191 191
0.220000 -0.275000 0.475000 1.000000 -0.000000 -0.000000 191 191 191
0.220000 -0.300000 0.500000 1.000000 -0.000000 -0.000000 191 191 191
0.220000 -0.275000 0.025000 1.000000 -0.000000 -0.000000 191 191 191
0.220000 -0.300000 -0.000000 1.000000 0.000000 -0.000000 191 191 191
0.220000 0.275000 0.025000 1.000000 0.000000 -0.000000 191 191 191
0.220000 0.300000 -0.000000 1.000000 0.000000 0.000000 191 191 191
0.220000 0.275000 0.475000 1.000000 -0.000000 -0.000000 191 191 191
0.220000 0.300000 0.500000 1.000000 -0.000000 -0.000000 191 191 191
0.220000 0.275000 0.475000 1.000000 0.000000 -0.000001 191 191 191
0.220000 0.300000 0.500000 1.000000 0.000000 -0.000001 191 191 191
0.220000 -0.275000 0.475000 1.000000 0.000000 -0.000001 191 191 191
0.195000 0.275000 0.025000 0.000000 -1.000000 0.000000 191 191 191
-0.195000 0.275000 0.025000 0.000000 -1.000000 0.000000 191 191 191
0.195000 0.275000 -0.000000 0.000000 -1.000000 0.000000 191 191 191
-0.195000 0.275000 0.000000 0.000000 -1.000000 0.000000 191 191 191
-0.195000 0.275000 0.025000 1.000000 0.000000 0.000000 191 191 191
-0.195000 -0.275000 0.025000 1.000000 0.000000 0.000000 191 191 191
-0.195000 0.275000 0.000000 1.000000 0.000000 0.000000 191 191 191
-0.195000 -0.275000 0.000000 1.000000 0.000000 -0.000000 191 191 191
-0.195000 -0.275000 0.025000 0.000000 1.000000 -0.000000 191 191 191
0.195000 -0.275000 0.025000 0.000000 1.000000 -0.000000 191 191 191
-0.195000 -0.275000 0.000000 0.000000 1.000000 -0.000000 191 191 191
0.195000 -0.275000 -0.000000 0.000000 1.000000 -0.000000 191 191 191
0.195000 -0.275000 0.025000 -1.000000 -0.000000 0.000000 191 191 191
0.195000 0.275000 0.025000 -1.000000 -0.000000 0.000000 191 191 191
0.195000 -0.275000 -0.000000 -1.000000 -0.000000 0.000000 191 191 191
0.195000 0.275000 -0.000000 -1.000000 -0.000000 0.000000 191 191 191
-0.195000 -0.275000 0.475000 1.000000 0.000000 -0.000000 191 191 191
-0.195000 -0.300000 0.475000 1.000000 0.000000 -0.000000 191 191 191
-0.195000 -0.300000 0.025000 1.000000 0.000000 -0.000000 191 191 191
-0.220000 -0.275000 0.475000 0.000000 1.000000 -0.000000 191 191 191
-0.195000 -0.275000 0.475000 0.000000 1.000000 -0.000000 191 191 191
-0.220000 -0.275000 0.025000 0.000000 1.000000 -0.000000 191 191 191
-0.195000 0.275000 0.475000 0.000000 -1.000000 0.000000 191 191 191
-0.220000 0.275000 0.475000 0.000000 -1.000000 0.000000 191 191 191
-0.220000 0.275000 0.025000 0.000000 -1.000000 0.000000 191 191 191
-0.195000 0.300000 0.475000 1.000000 0.000000 -0.000000 191 191 191
-0.195000 0.275000 0.475000 1.000000 0.000000 -0.000000 191 191 191
-0.195000 0.300000 0.025000 1.000000 0.000000 -0.000000 191 191 191
0.195000 0.275000 0.475000 -1.000000 0.000000 0.000000 191 191 191
0.195000 0.300000 0.475000 -1.000000 0.000000 0.000000 191 191 191
0.195000 0.300000 0.025000 -1.000000 0.000000 0.000000 191 191 191
0.220000 0.275000 0.475000 0.000000 -1.000000 0.000000 191 191 191
0.195000 0.275000 0.475000 0.000000 -1.000000 0.000000 191 191 191
0.220000 0.275000 0.025000 0.000000 -1.000000 0.000000 191 191 191
0.195000 -0.275000 0.475000 0.000000 1.000000 -0.000000 191 191 191
0.220000 -0.275000 0.475000 0.000000 1.000000 -0.000000 191 191 191
0.220000 -0.275000 0.025000 0.000000 1.000000 -0.000000 191 191 191
0.195000 -0.300000 0.475000 -1.000000 0.000000 0.000000 191 191 191
0.195000 -0.275000 0.475000 -1.000000 0.000000 0.000000 191 191 191
0.195000 -0.300000 0.025000 -1.000000 0.000000 0.000000 191 191 191
-0.195000 -0.275000 0.475000 -0.000000 0.000000 -1.000000 191 191 191
0.195000 -0.275000 0.475000 -0.000000 0.000000 -1.000000 191 191 191
-0.195000 -0.300000 0.475000 -0.000000 0.000000 -1.000000 191 191 191
0.195000 -0.300000 0.475000 -0.000000 0.000000 -1.000000 191 191 191
-0.220000 -0.275000 0.475000 -0.000000 -0.000000 -1.000000 191 191 191
-0.220000 0.275000 0.475000 -0.000000 -0.000000 -1.000000 191 191 191
-0.195000 0.275000 0.475000 -0.000000 -0.000000 -1.000000 191 191 191
-0.195000 0.300000 0.475000 -0.000000 0.000000 -1.000000 191 191 191
0.195000 0.300000 0.475000 -0.000000 0.000000 -1.000000 191 191 191
0.195000 0.275000 0.475000 -0.000000 0.000000 -1.000000 191 191 191
0.220000 0.275000 0.475000 0.000000 0.000000 -1.000000 191 191 191
0.220000 -0.275000 0.475000 0.000000 0.000000 -1.000000 191 191 191
0.195000 0.275000 0.500000 0.000000 -0.000000 1.000000 191 191 191
0.220000 0.300000 0.500000 0.000000 -0.000000 1.000000 191 191 191
-0.195000 0.275000 0.500000 0.000000 -0.000000 1.000000 191 191 191
-0.220000 0.300000 0.500000 0.000000 0.000000 1.000000 191 191 191
-0.195000 -0.275000 0.500000 -0.000000 -0.000000 1.000000 191 191 191
-0.220000 -0.300000 0.500000 -0.000000 -0.000000 1.000000 191 191 191
0.195000 -0.275000 0.500000 0.000000 -0.000000 1.000000 191 191 191
0.220000 -0.300000 0.500000 0.000000 0.000000 1.000000 191 191 191
-0.195000 -0.275000 0.500000 0.000000 1.000000 -0.000000 191 191 191
0.195000 -0.275000 0.500000 0.000000 1.000000 -0.000000 191 191 191
0.195000 -0.275000 0.500000 -1.000000 -0.000000 0.000000 191 191 191
0.195000 0.275000 0.500000 -1.000000 -0.000000 0.000000 191 191 191
0.195000 -0.275000 0.475000 -1.000000 -0.000000 0.000001 191 191 191
0.195000 0.275000 0.500000 -1.000000 -0.000000 0.000001 191 191 191
0.195000 0.275000 0.475000 -1.000000 -0.000000 0.000001 191 191 191
0.195000 0.275000 0.500000 0.000000 -1.000000 0.000000 191 191 191
-0.195000 0.275000 0.500000 0.000000 -1.000000 0.000000 191 191 191
-0.195000 0.275000 0.500000 1.000000 0.000000 -0.000001 191 191 191
-0.195000 -0.275000 0.500000 1.000000 0.000000 -0.000001 191 191 191
-0.195000 0.275000 0.475000 1.000000 0.000000 -0.000001 191 191 191
-0.195000 -0.275000 0.500000 1.000000 0.000000 -0.000000 191 191 191
3 0 1 2
3 2 1 3
3 4 5 6
3 6 5 7
3 8 9 10
3 10 9 11
3 12 13 14
3 14 13 15
3 16 17 18
3 18 17 19
3 20 21 22
3 22 21 23
3 24 25 26
3 27 28 29
3 30 31 32
3 33 34 35
3 36 37 34
3 34 37 38
3 34 38 39
3 40 41 42
3 43 44 45
3 45 44 46
3 45 46 47
3 24 26 48
3 48 26 49
3 50 51 52
3 29 53 54
3 53 55 54
3 54 55 56
3 54 56 57
3 57 56 58
3 39 59 34
3 34 59 60
3 34 60 61
3 61 60 62
3 62 63 61
3 61 63 64
3 61 64 65
3 28 66 29
3 29 66 61
3 67 68 69
3 70 61 65
3 47 71 45
3 45 71 72
3 45 72 73
3 73 72 54
3 43 74 75
3 75 74 76
3 75 76 77
3 78 79 80
3 54 81 82
3 54 82 29
3 83 84 85
3 29 86 27
3 87 88 89
3 90 91 92
3 90 92 48
3 93 94 91
3 91 94 95
3 91 95 96
3 97 98 96
3 96 98 99
3 96 99 91
3 91 99 100
3 101 76 102
3 102 76 91
3 103 104 105
3 106 91 100
3 107 108 109
3 109 108 77
3 109 77 110
3 101 111 76
3 76 111 112
3 76 112 113
3 113 114 76
3 76 114 115
3 76 115 77
3 77 115 116
3 77 116 110
3 117 118 119
3 109 120 107
3 107 120 121
3 107 121 122
3 97 96 119
3 123 124 125
3 119 126 127
3 127 128 119
3 119 128 129
3 119 129 117
3 130 131 132
3 132 131 133
3 134 135 136
3 57 137 138
3 57 138 25
3 25 138 139
3 140 141 142
3 122 121 143
3 143 121 144
3 145 146 147
3 147 146 148
3 132 149 130
3 133 150 132
3 132 150 119
3 132 119 151
3 151 119 118
3 151 118 152
3 153 154 155
3 155 154 156
3 155 156 33
3 157 158 159
3 159 158 160
3 159 160 25
3 161 162 163
3 25 164 26
3 118 165 152
3 152 165 166
3 152 166 167
3 167 166 168
3 167 168 35
3 35 168 169
3 35 169 33
3 33 169 170
3 33 170 155
3 153 155 159
3 159 155 171
3 159 171 157
3 172 173 174
3 175 176 177
3 175 177 178
3 179 180 181
3 182 183 184
3 185 186 187
3 184 188 189
3 190 191 192
3 179 193 194
3 194 193 195
3 194 195 196
3 196 197 198
3 181 199 179
3 179 199 200
3 179 200 193
3 201 202 203
3 203 202 204
3 205 206 207
3 208 209 210
3 208 210 211
3 191 212 192
3 192 212 213
3 192 213 214
3 214 213 177
3 214 177 215
3 215 177 176
3 216 217 192
3 218 219 220
3 192 221 190
3 222 217 223
3 211 224 208
3 208 224 225
3 208 225 226
3 226 225 203
3 226 203 227
3 227 203 204
3 228 229 230
3 228 230 231
3 208 232 229
3 229 232 233
3 229 233 230
3 230 233 234
3 234 235 230
3 236 237 238
3 230 239 179
3 179 239 240
3 179 240 180
3 198 241 196
3 196 241 242
3 196 242 194
3 194 242 243
3 194 243 244
3 244 245 194
3 194 245 246
3 194 246 247
3 248 249 250
3 189 188 230
3 251 252 253
3 230 254 231
3 216 255 217
3 217 255 256
3 217 256 223
3 223 256 257
3 258 259 260
3 261 177 262
3 261 262 263
3 264 265 266
3 266 265 267
3 268 269 203
3 270 271 272
3 203 273 201
3 257 274 223
3 275 276 277
3 223 278 279
3 279 278 280
3 279 280 196
3 196 280 281
3 196 281 197
3 282 283 174
3 174 283 266
3 174 266 172
3 172 266 267
3 284 285 286
3 287 288 289
3 289 288 290
3 250 291 269
3 292 293 294
3 172 295 296
3 172 296 297
3 250 249 298
3 247 261 194
3 194 261 263
3 194 263 266
3 266 263 299
3 266 299 300
3 300 301 266
3 266 301 302
3 266 302 264
3 268 303 269
3 269 303 304
3 269 304 250
3 250 304 305
3 250 305 248
3 306 307 308
3 298 249 306
3 306 249 309
3 306 309 307
3 310 311 312
3 172 306 308
3 172 308 313
3 314 315 316
3 313 317 184
3 318 319 320
3 184 321 182
3 322 323 324
3 324 323 325
3 326 327 328
3 329 330 331
3 332 333 334
3 334 333 335
3 336 337 338
3 338 337 339
3 340 341 342
3 342 341 343
3 344 345 346
3 346 345 347
3 348 349 350
3 350 349 351
3 352 353 354
3 355 356 357
3 358 359 360
3 360 359 361
3 362 363 364
3 365 366 367
3 368 369 370
3 370 369 371
3 372 373 374
3 375 376 377
3 378 379 380
3 380 379 381
3 382 383 384
3 384 383 385
3 386 387 388
3 388 387 389
3 390 391 392
3 392 391 393
3 394 395 396
3 396 395 397
3 398 399 400
3 400 399 401
3 402 403 404
3 404 403 405
3 406 407 408
3 408 407 409
3 410 411 412
3 412 411 413
3 414 415 416
3 416 415 417
3 418 419 420
3 420 419 421
3 422 423 424
3 424 423 425
3 426 427 428
3 428 427 429
3 430 431 432
3 432 431 433
3 434 435 436
3 436 435 437
3 438 439 440
3 440 439 441
3 442 443 444
3 444 443 445
3 446 447 448
3 448 447 449
3 450 451 452
3 452 451 453
3 454 455 456
3 456 455 457
3 458 459 460
3 460 459 461
3 462 463 464
3 464 463 465
3 466 467 468
3 468 467 469
3 470 471 472
3 472 471 473
3 474 475 476
3 476 475 477
3 478 479 480
3 480 479 481
3 482 483 484
3 484 483 485
3 486 487 488
3 488 487 489
3 490 491 492
3 492 491 493
3 494 495 496
3 496 495 497
3 498 499 500
3 500 499 501
3 502 503 504
3 504 503 505
3 506 507 508
3 508 507 509
3 510 511 512
3 512 511 513
3 514 515 516
3 516 515 517
3 518 519 520
3 520 519 521
3 522 523 524
3 524 523 525
3 526 527 528
3 528 527 529
3 530 531 532
3 532 531 533
3 534 535 536
3 536 535 537
3 538 539 540
3 540 539 541
3 542 543 544
3 544 543 545
3 546 547 548
3 548 547 549
3 550 551 552
3 552 551 553
3 554 555 556
3 556 555 557
3 558 559 560
3 560 559 561
3 562 563 564
3 564 563 565
3 566 567 568
3 568 567 569
3 570 571 572
3 572 571 573
3 574 575 576
3 576 575 577
3 578 579 580
3 580 579 581
3 582 583 584
3 584 583 585
3 586 587 588
3 588 587 589
3 590 591 592
3 592 591 593
3 594 595 596
3 596 595 597
3 598 599 600
3 600 599 601
3 602 603 604
3 604 603 605
3 606 607 608
3 608 607 609
3 610 611 612
3 612 611 613
3 614 615 616
3 616 615 617
3 618 619 620
3 620 619 621
3 622 623 624
3 624 623 625
3 626 627 628
3 628 627 629
3 630 631 632
3 632 631 633
3 634 635 636
3 636 635 637
3 638 639 640
3 640 639 641
3 642 643 644
3 644 643 645
3 646 647 648
3 648 647 649
3 650 651 652
3 652 651 653
3 654 655 656
3 656 655 657
3 658 659 660
3 660 659 661
3 662 663 664
3 664 663 665
3 666 667 668
3 668 667 669
3 670 671 672
3 672 671 673
3 674 675 676
3 676 675 677
3 678 679 680
3 680 679 681
3 682 683 684
3 684 683 685
3 686 687 688
3 688 687 689
3 690 691 692
3 692 691 693
3 694 695 696
3 696 695 697
3 698 699 700
3 700 699 701
3 702 703 704
3 704 703 705
3 706 707 708
3 708 707 709
3 710 711 712
3 712 711 713
3 714 715 716
3 716 715 717
3 718 719 720
3 720 719 721
3 722 723 724
3 724 723 725
3 726 727 728
3 728 727 729
3 730 731 732
3 732 731 733
3 734 735 736
3 736 735 737
3 738 739 740
3 740 739 741
3 742 743 744
3 744 743 745
3 746 747 748
3 748 747 749
3 750 751 752
3 752 751 753
3 754 755 756
3 756 755 757
3 758 759 760
3 760 759 761
3 762 763 764
3 764 763 765
3 766 767 765
3 765 767 768
3 769 770 771
3 771 770 763
3 772 766 773
3 773 766 770
3 774 775 776
3 776 775 777
3 776 777 778
3 778 777 779
3 778 779 780
3 780 779 781
3 780 781 774
3 774 781 775
3 782 783 784
3 784 783 785
3 784 785 786
3 786 785 787
3 786 787 788
3 788 787 789
3 788 789 782
3 782 789 783
3 790 791 792
3 792 791 793
3 792 793 794
3 794 793 795
3 794 795 796
3 796 795 797
3 796 797 790
3 798 799 800
3 801 802 803
3 803 802 804
3 803 804 805
3 805 804 806
3 805 806 807
3 807 806 808
3 807 808 801
3 801 808 802
3 809 810 811
3 811 810 812
3 811 812 813
3 813 812 814
3 813 814 815
3 815 814 816
3 817 818 819
3 809 816 810
3 820 821 822
3 822 821 823
3 824 825 826
3 826 825 827
3 828 829 830
3 830 829 831
3 832 833 834
3 834 833 835
3 836 837 825
3 825 837 838
3 839 840 841
3 841 840 828
3 842 843 821
3 821 843 844
3 845 846 847
3 847 846 824
3 848 849 833
3 833 849 850
3 851 852 853
3 853 852 820
3 854 855 829
3 829 855 856
3 857 858 859
3 859 858 832
3 860 861 862
3 862 861 863
3 864 865 860
3 860 865 866
3 867 868 866
3 866 868 869
3 870 871 869
3 869 871 861
3 872 873 874
3 874 873 875
3 874 875 876
3 876 875 877
3 876 877 878
3 878 877 879
3 878 879 872
3 872 879 873
3 880 881 840
3 840 881 854
3 882 883 858
3 884 885 886
3 887 888 852
3 852 888 842
3 889 890 891
3 846 892 836
